module gitlab.com/cooling75/fonius2mqtt

go 1.19

require (
	github.com/eclipse/paho.mqtt.golang v1.4.2
	github.com/go-co-op/gocron v1.18.0
	github.com/nathan-osman/go-sunrise v1.1.0
	gopkg.in/yaml.v2 v2.4.0
)

require (
	github.com/gorilla/websocket v1.4.2 // indirect
	github.com/robfig/cron/v3 v3.0.1 // indirect
	golang.org/x/net v0.0.0-20200425230154-ff2c4b7c35a0 // indirect
	golang.org/x/sync v0.0.0-20210220032951-036812b2e83c // indirect
)
